{
	"installed": {
		"client_id": "849932230687-cl8alfb7koltk0rlgtgaca79grf7ls6r.apps.googleusercontent.com",
		"project_id": "cmci-paris",
		"auth_uri": "https://accounts.google.com/o/oauth2/auth",
		"token_uri": "https://oauth2.googleapis.com/token",
		"auth_provider_x509_cert_url": "https://www.googleapis.com/oauth2/v1/certs",
		"client_secret": "MOmwNW_EZfeNvzL9MfWqtAz0",
		"redirect_uris": ["urn:ietf:wg:oauth:2.0:oob", "http://localhost"]
	}
}
